{
	"ai" : {
		"agentCount"		:	1,
		"raycasting"		: {
			"normal"	: 1,
			"terrain"	: 1,
			"countMin": 4,
			"countMax": 7
		},        
		
    "heightThreshold" : 10.001,
		
		"magnetDistance"	: 3.001,
		"avoidBezierCollisions"	: 1,
		"avoidBezierCollisionsNeighbours"	: 3,
		"avoidBezierCollisionsCountLimit"	: 4,
		
		"acceptMagnets"			: 0,
		"qtTargetSize"			: 20,
		
		"bezierMovement"		: 1,	
		
		"pathnodegeneratorStep"	: 4.001,
		"pathnodegeneratorStepKoef"	: 1.7,
		
		"pathnodegeneratorStepOnGO" : 3.5,
		
		"placeWaypointsOnGO"	: 1,
		"agentMovementOnlyOnGO"	: 0,
		"resetPathfindingCount"	: 10,  
    
    "connectionPlacingOptimization" : 0,
		
		"aiUpdateScheduleKoef"		: 2,
		
		"minimalAgentHeight"	: 0,
		
		"verticalGOStep"		: 5,

		"rrng"			: 1,
		"rrngSeed"		: 0,
		"agentQtisInsideOptimization"	: 1,
		"agentQtisInsideRefreshRate"	: 15,

		"useFsm"		: 1,
		"stepMoveKoef"		: 1,
		"movementAddition"	: 0.01,	// 0.05
    "minClosingDistance" : 0.5,
    
    "directSight"     : 1,
		"directSightAngle" : 40.001
	},
	
	"scene" : {
		"width"	: 	60,
		"minObstacleCount"	:	0,
		"maxObstacleCount"	:	0,
		"regenerateObstacles"	:	1,
		"enableTerrain"		:	1
	},
	
	"gfx" : {
		"xres"	:	1600,
		"yres"	:	1200,
		"cameraDistance"	: 100
	},
	
	"debug"	: {
		"waypoints" : {
			"showAll"	: 	0,
			"showOnGO"	:	0
		},
		"showRaycasting"	:	0,
		"showRaycastedTriangles"	: 0,
		"show3DPath"		:	0,
		
		"initGround"		:	0,
		
		"showQuadTree"		:	0,
		"showconnections"	:	0,
		
		"showMagnets"		:	0,
		
		"showPaths"			:	0,
		"showBezierPaths"	:	0,
		
		//"testModelFilename"	: 	"test.obj",
		 "showDirection" : 0,
		
		"showAgentDescriptions"	: 0,
		"showAgentGameDescriptions"	: 0,
		"showObjectDescriptions": 0,
		
		"modelsToLoad"		: 1,
		
		"displayModels"		: 1,
		
		"displayTerrain"	: 1,
		
		"loadHeightmap"		: 1,
		
		"terrainWidth"		: 80,
		"terrainHeight"		: 80,
		"terrainStep"		: 2,
		
		"saveWaypoints"		: 0,
		"loadWaypoints"		: 0,
		"loadConnections"	: 0,
		
		"autoLoadSave"		: 0,

		"divideToTeams"		: 0,
		"teamNumber"		: 4,
		"teamBases"		: 1,

		"showShooting"		: 1,

		"deleteShootingKoef"	: 10,
    
    "enableFlags"     : 1,     
    
    "showSaveButton"  : 0,
    
    "loadWaypointsFromResource" : 0,
    
    "aiFilename"      : "precomputed.ai", 
    
    "loadTextures"    : 1,
    
    "agentMeshes"     : 1,
    
    "showFSMDescriptions" : 0,
    
    "playable" : 1,     
    
    "3rdPersonCamera" : 0,  
    
    "agentCamera" : 1,
    
    "agentCameraId" : 0,
    
    "playerSettings"  : {
        "x"	:	5.0001,
				"y"	:	10.0001,
				"z"	:	5.0001,
        "aiNotices" : 1,
        "angularMovement" : 1,    
        "teamId" : 3
    },
		
		"modelSettings"		: {			
			"0"	: {
				"filename"	:	"bridge-out.obj",
				"scaleX"	: 	1.201,
				"scaleY"	: 	1.001,
				"scaleZ"	:	1.201,
				"x"			:	0.001,
				"y"			:	10.801,
				"z"			:	0.001,
				"rotationX"	:	180.001,
				"rotationY"	:	90.001,
				"rotationZ"	:	0.001,
				"step"		:	2.001
			}
		},

		"teamBaseSettings"	: {
			"0"	: {
				"x"	:	-38.0001,
				"y"	:	0.0001,
				"z"	:	-38.0001
			},
			"1"	: {
				"x"	:	38.0001,
				"y"	:	0.0001,
				"z"	:	-38.0001
			},
			"2"	: {
				"x"	:	38.0001,
				"y"	:	0.0001,
				"z"	:	38.0001
			}
			,
			"3"	: {
				"x"	:	5.0001,
				"y"	:	10.0001,
				"z"	:	5.0001
			}
		},
    
    "flagSettings" : {
       			"0"	: {
				"x"	:	-37.0001,
				"y"	:	0.0001,
				"z"	:	-37.0001
			},
			"1"	: {
				"x"	:	37.0001,
				"y"	:	0.0001,
				"z"	:	-37.0001
			},
			"2"	: {
				"x"	:	37.0001,
				"y"	:	0.0001,
				"z"	:	37.0001
			},
			"3"	: {
				"x"	:	5.0001,
				"y"	:	10.0001,
				"z"	:	5.0001
			}
    }
	}
}